Cohort 2018 Preprocessing • MAHERYCohortHarmonization
…
open_census_ %>%
  select(dob_actual, dob_estimated) %>%
  table()
#>           dob_estimated
#> dob_actual FALSE TRUE
#>        No      0  226
#>        Yes   270   54

There were 54 cases where DoB was estimated but the original column
said that it was actual. I wonder how these got encoded that way
then?

open_census_ %>%
  filter(dob_actual == "Yes" & dob_estimated == TRUE)
#> # A tibble: 54 × 53
#>    user_id   hh_head_name id    member name_family_member date_census dob_actual
#>    <chr>     <chr>        <chr> <chr>  <chr>              <chr>       <chr>     
#>  1 Antarava… Avelice      6fb7… E25c3… Avelice            2017-12-12  Yes       
#>  2 Antarava… Be alphonse  3165… 0fc5d… Be alphonse        2017-12-07  Yes       
#>  3 Antarava… Be alphonse  3165… 1495a… Razafindraranto o… 2017-12-07  Yes       
#>  4 Antarava… Be angenica  A469… 9a1ae… Be angenica        2017-12-02  Yes       
#>  5 Antarava… Be razakand… Ac86… Ebaee… Alphine            2017-12-05  Yes       
#>  6 Antarava… Be rolin ii  497e… 2c047… Be rolin ii        2017-12-08  Yes       
#>  7 Antarava… Be zela      2077… A4533… Be zela            2017-12-14  Yes       
#>  8 Antarava… Be zela      2077… F680e… Jumela             2017-12-14  Yes       
#>  9 Antarava… Benosy raph… 3340… 7d0ad… Judianot           2017-12-11  Yes       
#> 10 Antarava… Besargene    456d… 93485… Miscanah           2017-12-06  Yes       
#> # ℹ 44 more rows
#> # ℹ 46 more variables: dob_date <chr>, dob_month <chr>, dob_year <chr>,
#> #   ethnic_group <chr>, other_ethnic_group <chr>, sex <chr>, education <chr>,
#> #   profession <chr>, profession_choices <chr>, other_profession <chr>,
#> #   marital_status <chr>, prior_health_care <chr>, prior_diagnosis <chr>,
#> #   other_prior_diagnosis <chr>, visual_health_deformities <chr>,
#> #   other_visual_health_deformities <chr>, surgeries <chr>, …
…
Cleaned Sex and marital status

Here’s a visual summary using our
audit_categorical_cleaning function:

open_census_ %>%
  audit_categorical_cleaning(
    raw_col = hh_head_name,
    cleaned_col = hh_head_name_clean,
    var_name = "Household Head Name", plot = FALSE
    )
#> 
#> === Mapping Table for: Household Head Name ===
#> # A tibble: 134 × 3
#>    raw              cleaned              n
#>    <chr>            <chr>            <int>
#>  1 Be zela          be zela             10
#>  2 Bezafy romain    bezafy romain        9
#>  3 Bilina victor    bilina victor        9
#>  4 Tsidinesana      tsidinesana          9
#>  5 Clerien          clerien              8
#>  6 Eddy             eddy                 8
#>  7 Rakoto elois     rakoto elois         8
#>  8 Daniel tsaramaro daniel tsaramaro     7
#>  9 Derisy           derisy               7
#> 10 Pierreson        pierreson            7
#> # ℹ 124 more rows
…
