Preprocessing Dharma 2019 Cohort • MAHERYCohortHarmonization
…
Level 0: Household enrollment 
Level 1: Individuals in household
Level 2: Antropometric data (every 3 months), dietary intake data collected from head of household (every 4 months), followup data.

We have a data dictionary that we can reference:

dharma2019_dict <- dharma2019$`Data Dictionary`
dharma2019_dict %>%
  fill(level, .direction = "down") -> dharma2019_dict

level_1_dict <- dharma2019_dict %>%
  filter(level == 1)
level_1_dict
#> # A tibble: 118 × 6
#>    level column_name          description          choice_code choice_name type 
#>    <dbl> <chr>                <chr>                <chr>       <chr>       <chr>
#>  1     1 q39_date             Date                 .           .           Ques…
#>  2     1 q1_name              Full name            .           .           Ques…
#>  3     1 q167_hh              Is the respondent t… 489         Yes         Ques…
#>  4     1 NA                   NA                   490         No          Ques…
#>  5     1 q168_wife_husband_hh Is the respondent t… 491         Yes         Ques…
#>  6     1 NA                   NA                   492         No          Ques…
#>  7     1 q8_gender            Gender of the respo… 18          Male        Ques…
#>  8     1 NA                   NA                   19          Female      Ques…
#>  9     1 q165_alive           Is the respondent s… 487         Alive       Ques…
#> 10     1 NA                   NA                   488         Dead        Ques…
#> # ℹ 108 more rows
…
We need to figure out who the duplicates are in the dataset.

cohort_df_ %>%
  #select(L1_q1_name) %>%
  group_by(name_clean) %>%
  summarise(n = n()) %>%
  filter(n > 1) %>% pull(name_clean) -> duplicate_names

cohort_df_ %>%
  filter(name_clean %in% duplicate_names) %>%
  arrange(name_clean) %>%
  select(contains("clean"), everything())
#> # A tibble: 159 × 96
#>    name_clean fact_0_id fact_1_id L1_q39_date L1_q1_name L1_q167_hh
#>    <chr>          <dbl>     <dbl> <chr>       <chr>      <chr>     
#>  1 anastasie    8863998   8864010 43553       ANASTASIE  Yes       
#>  2 anastasie    8888248   8888473 43293       Anastasie  No        
#>  3 angelco      8862058   8862079 42949       Angelco    No        
#>  4 angelco      8870580   8870625 43078       Angelco    No        
#>  5 angelco      8870975   8871018 43076       Angelco    No        
#>  6 angelo       8910388   8910633 42927       Angelo     No        
#>  7 angelo       8910515   8910654 42926       Angelo     No        
#>  8 antonio      8865246   8865261 43209       ANTONIO    No        
#>  9 antonio      8870618   8870670 42948       Antonio    No        
#> 10 antonio      8910516   8910659 42926       Antonio    No        
#> # ℹ 149 more rows
#> # ℹ 90 more variables: L1_q168_wife_husband_hh <chr>, L1_q8_gender <chr>,
#> #   L1_q165_alive <chr>, L1_q2_dob_year <chr>, L1_q4_dob_month <chr>,
#> #   L1_q5_dob_date <chr>, L1_q6_actual_dob <chr>, L1_q169_education <chr>,
#> #   L1_q10_ethnicity <chr>, L1_q11_other_ethnicity <chr>,
#> #   L1_q12_occupation <chr>, L1_q13_what_occupation.000 <chr>,
#> #   L1_q13_what_occupation.001 <chr>, L1_q13_what_occupation.002 <chr>, …
…
Profession

We don’t have a prepared function for this, but it is fairly easy to
do:

prof_columns <- names(cohort_df_) %>%
  str_subset(., "what_occupation|other_occupation")

cohort_df_ %>%
  select(all_of(prof_columns)) %>%
  mutate(across(everything(), ~ str_replace(., "\\.|Other", NA_character_))) %>%
  unite(occupation, everything(), na.rm=TRUE) %>%
  distinct()
#> # A tibble: 43 × 1
#>    occupation        
#>    <chr>             
#>  1 "Farmer"          
#>  2 "Teacher"         
#>  3 "Farmer_Caretaker"
#>  4 "Mecaniscien"     
#>  5 "Manjaitra"       
#>  6 ""                
#>  7 "Caretaker"       
#>  8 "Assistant MAHER6"
#>  9 "Mpanjaitra"      
#> 10 "Student"         
#> # ℹ 33 more rows
…
Our function for processing professions will also translate the
Malagasy professions to English, so that we can have a consistent set of
professions across the cohorts.

cohort_df_ <- clean_2019_profession(cohort_df_)

mapping <- audit_categorical_cleaning(
  cohort_df_,
  occupation,
  profession_clean
)
#> 
#> === Mapping Table for: occupation ===
#> # A tibble: 43 × 3
#>    raw                       cleaned        n
#>    <chr>                     <chr>      <int>
#>  1 "Farmer"                  farmer       866
#>  2 ""                        NA           582
#>  3 "Student"                 student      276
#>  4 "Farmer_Fisher"           fisherman     17
#>  5 "Farmer_Shop owner"       shop owner    14
#>  6 "Teacher"                 teacher        9
#>  7 "Farmer_Teacher"          teacher        8
#>  8 "Shop owner"              shop owner     4
#>  9 "Farmer_Student"          student        3
#> 10 "Still a student_Student" student        3
#> # ℹ 33 more rows
…
