Preprocessing 2019 Health Status • MAHERYCohortHarmonization
…
  #join household head name
  left_join(household_df, by = "fact_0_id") -> cohort_2019_health

We can use the data dictionary to see what columns are available.

dharma2019_dict <- dharma2019$`Data Dictionary`
dharma2019_dict %>%
  fill(level, .direction = "down") -> dharma2019_dict

level_1_dict <- dharma2019_dict %>%
  filter(level == 1)
level_1_dict
#> # A tibble: 118 × 6
#>    level column_name          description          choice_code choice_name type 
#>    <dbl> <chr>                <chr>                <chr>       <chr>       <chr>
#>  1     1 q39_date             Date                 .           .           Ques…
#>  2     1 q1_name              Full name            .           .           Ques…
#>  3     1 q167_hh              Is the respondent t… 489         Yes         Ques…
#>  4     1 NA                   NA                   490         No          Ques…
#>  5     1 q168_wife_husband_hh Is the respondent t… 491         Yes         Ques…
#>  6     1 NA                   NA                   492         No          Ques…
#>  7     1 q8_gender            Gender of the respo… 18          Male        Ques…
#>  8     1 NA                   NA                   19          Female      Ques…
#>  9     1 q165_alive           Is the respondent s… 487         Alive       Ques…
#> 10     1 NA                   NA                   488         Dead        Ques…
#> # ℹ 108 more rows

level_1_dict <- dharma2019_dict %>%
  filter(level == 1)
level_1_dict
#> # A tibble: 118 × 6
#>    level column_name          description          choice_code choice_name type 
#>    <dbl> <chr>                <chr>                <chr>       <chr>       <chr>
#>  1     1 q39_date             Date                 .           .           Ques…
#>  2     1 q1_name              Full name            .           .           Ques…
#>  3     1 q167_hh              Is the respondent t… 489         Yes         Ques…
#>  4     1 NA                   NA                   490         No          Ques…
#>  5     1 q168_wife_husband_hh Is the respondent t… 491         Yes         Ques…
#>  6     1 NA                   NA                   492         No          Ques…
#>  7     1 q8_gender            Gender of the respo… 18          Male        Ques…
#>  8     1 NA                   NA                   19          Female      Ques…
#>  9     1 q165_alive           Is the respondent s… 487         Alive       Ques…
#> 10     1 NA                   NA                   488         Dead        Ques…
#> # ℹ 108 more rows
…
As we can see, the data is supposed to correspond to a 2019 data
collection window, but extends to almost the end of 2020.

Naively, we can check to see if people get multiple surveys:

cohort_2019_anthro %>%
  fill(fact_1_id, .direction = "down") %>%
  filter(!deleted) %>%
  group_by(fact_1_id) %>%
  summarise(n_surveys = n()) %>%
  arrange(-n_surveys)
#> # A tibble: 1,755 × 2
#>    fact_1_id n_surveys
#>        <dbl>     <int>
#>  1   8864710        19
#>  2   8861722        18
#>  3   8861723        18
#>  4   8861724        18
#>  5   8861743        18
#>  6   8861744        18
#>  7   8861745        18
#>  8   8861808        18
#>  9   8861809        18
#> 10   8861992        18
#> # ℹ 1,745 more rows
…
Ok, it is encouraging that the dates are all different. This would
mean that, for some people, they have multiple follow ups in the same
year.

Let’s see how many follows ups the average person has:

cohort_2019_anthro %>%
  fill(fact_0_id, fact_1_id, .direction = "down") %>%
  filter(!deleted)
#> # A tibble: 22,757 × 1,252
#>    fact_0_id fact_1_id fact_2_id L2_q38_date_followup L2_q41_alive
#>        <dbl>     <dbl>     <dbl> <chr>                <chr>       
#>  1   8853944   8861217   8861231 .                    Yes         
#>  2   8853944   8861218   8861233 43550                Yes         
#>  3   8860274   8860332   8860369 43549                Yes         
#>  4   8860274   8860332   9045306 43664                Yes         
#>  5   8860274   8860341   8860370 43549                Yes         
#>  6   8860274   8860341   9804982 43770                Yes         
#>  7   8860274   8860346   8860375 43549                Yes         
#>  8   8860274   8860346   9804981 43770                Yes         
#>  9   8860274   8861243   8861264 43549                Yes         
#> 10   8860274   8861248   8861265 43549                Yes         
#> # ℹ 22,747 more rows
#> # ℹ 1,247 more variables: L2_q791_enumerator <chr>, L2_q46_present <chr>,
#> #   L2_q398_not_in_town <chr>, L2_q804_not_in_town1.000 <chr>,
#> #   L2_q804_not_in_town1.001 <chr>, L2_q804_not_in_town1.002 <chr>,
#> #   L2_q804_not_in_town1.003 <chr>, L2_q804_not_in_town1.004 <chr>,
#> #   L2_q804_not_in_town1.005 <chr>, L2_q804_not_in_town1.006 <chr>,
#> #   L2_q804_not_in_town1.007 <chr>, L2_q804_not_in_town1.008 <chr>, …
…
So what we need to find are the same health columns from 2019, but in
2020. Do the same number of surveys per person exist?:

cohort_2020_anthro %>%
  filter(!deleted) %>%
  filter(L0_q856_unique_id_if_unable_to_select_from_dropdown_above != ".") %>%
  group_by(L0_q856_unique_id_if_unable_to_select_from_dropdown_above) %>%
  summarise(n_surveys = n()) %>%
  arrange(-n_surveys)
#> # A tibble: 2,273 × 2
#>    L0_q856_unique_id_if_unable_to_select_from_dropdown_above n_surveys
#>    <chr>                                                         <int>
#>  1 A1                                                                6
#>  2 10004792                                                          3
#>  3 10004799                                                          3
#>  4 10004905                                                          3
#>  5 10005044                                                          3
#>  6 10005336                                                          3
#>  7 10005416                                                          3
#>  8 10005769                                                          3
#>  9 10005967                                                          3
#> 10 10005968                                                          3
#> # ℹ 2,263 more rows
…
